oscpu-framework/projects/cpu/build_test/top.vcd
$version Generated by VerilatedVcd $end
$date Wed Aug 17 15:30:35 2022 $end
$timescale 1ps $end

 $scope module TOP $end
  $var wire  1 i clk $end
  $var wire 32 k inst [31:0] $end
  $var wire 64 l inst_addr [63:0] $end
  $var wire  1 n inst_ena $end
  $var wire  1 j rst $end
  $scope module rvcpu $end
   $var wire  1 i clk $end
   $var wire 32 k inst [31:0] $end
   $var wire 64 l inst_addr [63:0] $end
   $var wire  1 n inst_ena $end
   $var wire  8 % inst_opcode [7:0] $end
   $var wire  5 $ inst_type [4:0] $end
   $var wire  5 $ inst_type_o [4:0] $end
   $var wire 64 q op1 [63:0] $end
   $var wire 64 s op2 [63:0] $end
   $var wire 64 u r_data1 [63:0] $end
   $var wire 64 "! r_data2 [63:0] $end
   $var wire 64 w rd_data [63:0] $end
   $var wire  5 # rd_w_addr [4:0] $end
   $var wire  1 o rd_w_ena $end
   $var wire  5 p rs1_r_addr [4:0] $end
   $var wire  1 o rs1_r_ena $end
   $var wire  5 !! rs2_r_addr [4:0] $end
   $var wire  1 ~ rs2_r_ena $end
   $var wire  1 j rst $end
   $scope module Exe_stage $end
    $var wire  8 % inst_opcode [7:0] $end
    $var wire  5 $ inst_type_i [4:0] $end
    $var wire  5 $ inst_type_o [4:0] $end
    $var wire 64 q op1 [63:0] $end
    $var wire 64 s op2 [63:0] $end
    $var wire 64 w rd_data [63:0] $end
    $var wire  1 j rst $end
   $upscope $end
   $scope module Id_stage $end
    $var wire  3 { func3 [2:0] $end
    $var wire 12 } imm [11:0] $end
    $var wire 32 k inst [31:0] $end
    $var wire  1 & inst_addi $end
    $var wire  8 % inst_opcode [7:0] $end
    $var wire  5 $ inst_type [4:0] $end
    $var wire 64 q op1 [63:0] $end
    $var wire 64 s op2 [63:0] $end
    $var wire  7 y opcode [6:0] $end
    $var wire  5 z rd [4:0] $end
    $var wire  5 # rd_w_addr [4:0] $end
    $var wire  1 o rd_w_ena $end
    $var wire  5 | rs1 [4:0] $end
    $var wire 64 u rs1_data [63:0] $end
    $var wire  5 p rs1_r_addr [4:0] $end
    $var wire  1 o rs1_r_ena $end
    $var wire 64 "! rs2_data [63:0] $end
    $var wire  5 !! rs2_r_addr [4:0] $end
    $var wire  1 ~ rs2_r_ena $end
    $var wire  1 j rst $end
   $upscope $end
   $scope module If_stage $end
    $var wire  1 i clk $end
    $var wire 64 l inst_addr [63:0] $end
    $var wire  1 n inst_ena $end
    $var wire 64 ' pc [63:0] $end
    $var wire  1 j rst $end
   $upscope $end
   $scope module Regfile $end
    $var wire  1 i clk $end
    $var wire  5 p r_addr1 [4:0] $end
    $var wire  5 !! r_addr2 [4:0] $end
    $var wire 64 u r_data1 [63:0] $end
    $var wire 64 "! r_data2 [63:0] $end
    $var wire  1 o r_ena1 $end
    $var wire  1 ~ r_ena2 $end
    $var wire 64 ) regs(0) [63:0] $end
    $var wire 64 + regs(1) [63:0] $end
    $var wire 64 = regs(10) [63:0] $end
    $var wire 64 ? regs(11) [63:0] $end
    $var wire 64 A regs(12) [63:0] $end
    $var wire 64 C regs(13) [63:0] $end
    $var wire 64 E regs(14) [63:0] $end
    $var wire 64 G regs(15) [63:0] $end
    $var wire 64 I regs(16) [63:0] $end
    $var wire 64 K regs(17) [63:0] $end
    $var wire 64 M regs(18) [63:0] $end
    $var wire 64 O regs(19) [63:0] $end
    $var wire 64 - regs(2) [63:0] $end
    $var wire 64 Q regs(20) [63:0] $end
    $var wire 64 S regs(21) [63:0] $end
    $var wire 64 U regs(22) [63:0] $end
    $var wire 64 W regs(23) [63:0] $end
    $var wire 64 Y regs(24) [63:0] $end
    $var wire 64 [ regs(25) [63:0] $end
    $var wire 64 ] regs(26) [63:0] $end
    $var wire 64 _ regs(27) [63:0] $end
    $var wire 64 a regs(28) [63:0] $end
    $var wire 64 c regs(29) [63:0] $end
    $var wire 64 / regs(3) [63:0] $end
    $var wire 64 e regs(30) [63:0] $end
    $var wire 64 g regs(31) [63:0] $end
    $var wire 64 1 regs(4) [63:0] $end
    $var wire 64 3 regs(5) [63:0] $end
    $var wire 64 5 regs(6) [63:0] $end
    $var wire 64 7 regs(7) [63:0] $end
    $var wire 64 9 regs(8) [63:0] $end
    $var wire 64 ; regs(9) [63:0] $end
    $var wire  1 j rst $end
    $var wire  5 # w_addr [4:0] $end
    $var wire 64 w w_data [63:0] $end
    $var wire  1 o w_ena $end
   $upscope $end
  $upscope $end
 $upscope $end
$enddefinitions $end


#0
b00000 #
b00000 $
b00000000 %
0&
b0000000000000000000000000000000000000000000000000000000000000000 '
b0000000000000000000000000000000000000000000000000000000000000000 )
b0000000000000000000000000000000000000000000000000000000000000000 +
b0000000000000000000000000000000000000000000000000000000000000000 -
b0000000000000000000000000000000000000000000000000000000000000000 /
b0000000000000000000000000000000000000000000000000000000000000000 1
b0000000000000000000000000000000000000000000000000000000000000000 3
b0000000000000000000000000000000000000000000000000000000000000000 5
b0000000000000000000000000000000000000000000000000000000000000000 7
b0000000000000000000000000000000000000000000000000000000000000000 9
b0000000000000000000000000000000000000000000000000000000000000000 ;
b0000000000000000000000000000000000000000000000000000000000000000 =
b0000000000000000000000000000000000000000000000000000000000000000 ?
b0000000000000000000000000000000000000000000000000000000000000000 A
b0000000000000000000000000000000000000000000000000000000000000000 C
b0000000000000000000000000000000000000000000000000000000000000000 E
b0000000000000000000000000000000000000000000000000000000000000000 G
b0000000000000000000000000000000000000000000000000000000000000000 I
b0000000000000000000000000000000000000000000000000000000000000000 K
b0000000000000000000000000000000000000000000000000000000000000000 M
b0000000000000000000000000000000000000000000000000000000000000000 O
b0000000000000000000000000000000000000000000000000000000000000000 Q
b0000000000000000000000000000000000000000000000000000000000000000 S
b0000000000000000000000000000000000000000000000000000000000000000 U
b0000000000000000000000000000000000000000000000000000000000000000 W
b0000000000000000000000000000000000000000000000000000000000000000 Y
b0000000000000000000000000000000000000000000000000000000000000000 [
b0000000000000000000000000000000000000000000000000000000000000000 ]
b0000000000000000000000000000000000000000000000000000000000000000 _
b0000000000000000000000000000000000000000000000000000000000000000 a
b0000000000000000000000000000000000000000000000000000000000000000 c
b0000000000000000000000000000000000000000000000000000000000000000 e
b0000000000000000000000000000000000000000000000000000000000000000 g
0i
1j
b00000000000000000000000000000000 k
b0000000000000000000000000000000000000000000000000000000000000000 l
0n
0o
b00000 p
b0000000000000000000000000000000000000000000000000000000000000000 q
b0000000000000000000000000000000000000000000000000000000000000000 s
b0000000000000000000000000000000000000000000000000000000000000000 u
b0000000000000000000000000000000000000000000000000000000000000000 w
b0000000 y
b00000 z
b000 {
b00000 |
b000000000000 }
0~
b00000 !!
b0000000000000000000000000000000000000000000000000000000000000000 "!
#1
#2
#3
#4
#5
1i
#6
#7
#8
#9
#10
0i
0j
1n
#11
#12
#13
#14
#15
b00001 #
b10000 $
b00010001 %
1&
b0000000000000000000000000000000000000000000000000000000000000100 '
1i
b00000000000100000000000010010011 k
b0000000000000000000000000000000000000000000000000000000000000100 l
1o
b0000000000000000000000000000000000000000000000000000000000000001 s
b0000000000000000000000000000000000000000000000000000000000000001 w
b0010011 y
b00001 z
b000000000001 }
#16
#17
#18
#19
#20
0i
#21
#22
#23
#24
#25
b0000000000000000000000000000000000000000000000000000000000001000 '
b0000000000000000000000000000000000000000000000000000000000000001 +
1i
b00000000001000000000000010010011 k
b0000000000000000000000000000000000000000000000000000000000001000 l
b0000000000000000000000000000000000000000000000000000000000000010 s
b0000000000000000000000000000000000000000000000000000000000000010 w
b000000000010 }
#26
#27
#28
#29
#30
0i
#31
#32
#33
#34
#35
b0000000000000000000000000000000000000000000000000000000000001100 '
b0000000000000000000000000000000000000000000000000000000000000010 +
1i
b00000000000100001000000010010011 k
b0000000000000000000000000000000000000000000000000000000000001100 l
b00001 p
b0000000000000000000000000000000000000000000000000000000000000010 q
b0000000000000000000000000000000000000000000000000000000000000001 s
b0000000000000000000000000000000000000000000000000000000000000010 u
b0000000000000000000000000000000000000000000000000000000000000011 w
b00001 |
b000000000001 }
#36
#37
#38
#39
#40
0i
#41
#42
#43
#44
#45
b00000 #
b00000 $
b00000000 %
0&
b0000000000000000000000000000000000000000000000000000000000010000 '
b0000000000000000000000000000000000000000000000000000000000000011 +
1i
b00000000000000000000000000000000 k
b0000000000000000000000000000000000000000000000000000000000010000 l
0o
b00000 p
b0000000000000000000000000000000000000000000000000000000000000000 q
b0000000000000000000000000000000000000000000000000000000000000000 s
b0000000000000000000000000000000000000000000000000000000000000000 u
b0000000000000000000000000000000000000000000000000000000000000000 w
b0000000 y
b00000 z
b00000 |
b000000000000 }
#46
#47
#48
#49
#50
0i
#51
#52
#53
#54
#55
b0000000000000000000000000000000000000000000000000000000000010100 '
1i
b0000000000000000000000000000000000000000000000000000000000010100 l
#56
#57
#58
#59
#60
0i
#61
#62
#63
#64
#65
b0000000000000000000000000000000000000000000000000000000000011000 '
1i
b0000000000000000000000000000000000000000000000000000000000011000 l
#66
#67
#68
#69
#70
0i
#71
#72
#73
#74
#75
b0000000000000000000000000000000000000000000000000000000000011100 '
1i
b0000000000000000000000000000000000000000000000000000000000011100 l
#76
#77
#78
#79
#80
0i
#81
#82
#83
#84
#85
b0000000000000000000000000000000000000000000000000000000000100000 '
1i
b0000000000000000000000000000000000000000000000000000000000100000 l
#86
#87
#88
#89
#90
0i
#91
#92
#93
#94
#95
b0000000000000000000000000000000000000000000000000000000000100100 '
1i
b0000000000000000000000000000000000000000000000000000000000100100 l
#96
#97
#98
#99
#100
0i
#101
#102
#103
#104
#105
b0000000000000000000000000000000000000000000000000000000000101000 '
1i
b0000000000000000000000000000000000000000000000000000000000101000 l
#106
#107
#108
#109
#110
0i
#111
#112
#113
#114
#115
b0000000000000000000000000000000000000000000000000000000000101100 '
1i
b0000000000000000000000000000000000000000000000000000000000101100 l
#116
#117
#118
#119
#120
0i
#121
#122
#123
#124
#125
b0000000000000000000000000000000000000000000000000000000000110000 '
1i
b0000000000000000000000000000000000000000000000000000000000110000 l
#126
#127
#128
#129
#130
0i
#131
#132
#133
#134
#135
b0000000000000000000000000000000000000000000000000000000000110100 '
1i
b0000000000000000000000000000000000000000000000000000000000110100 l
#136
#137
#138
#139
#140
0i
#141
#142
#143
#144
#145
b0000000000000000000000000000000000000000000000000000000000111000 '
1i
b0000000000000000000000000000000000000000000000000000000000111000 l
#146
#147
#148
#149
#150
0i
#151
#152
#153
#154
#155
b0000000000000000000000000000000000000000000000000000000000111100 '
1i
b0000000000000000000000000000000000000000000000000000000000111100 l
#156
#157
#158
#159
#160
0i
#161
#162
#163
#164
#165
b0000000000000000000000000000000000000000000000000000000001000000 '
1i
b0000000000000000000000000000000000000000000000000000000001000000 l
#166
#167
#168
#169
#170
0i
#171
#172
#173
#174
#175
b0000000000000000000000000000000000000000000000000000000001000100 '
1i
b0000000000000000000000000000000000000000000000000000000001000100 l
#176
#177
#178
#179
#180
0i
#181
#182
#183
#184
#185
b0000000000000000000000000000000000000000000000000000000001001000 '
1i
b0000000000000000000000000000000000000000000000000000000001001000 l
#186
#187
#188
#189
#190
0i
#191
#192
#193
#194
#195
b0000000000000000000000000000000000000000000000000000000001001100 '
1i
b0000000000000000000000000000000000000000000000000000000001001100 l
#196
#197
#198
#199
#200
0i
#201
#202
#203
#204
#205
b0000000000000000000000000000000000000000000000000000000001010000 '
1i
b0000000000000000000000000000000000000000000000000000000001010000 l
#206
#207
#208
#209
#210
0i
#211
#212
#213
#214
#215
b0000000000000000000000000000000000000000000000000000000001010100 '
1i
b0000000000000000000000000000000000000000000000000000000001010100 l
#216
#217
#218
#219
#220
0i
#221
#222
#223
#224
#225
b0000000000000000000000000000000000000000000000000000000001011000 '
1i
b0000000000000000000000000000000000000000000000000000000001011000 l
#226
#227
#228
#229
#230
0i
#231
#232
#233
#234
#235
b0000000000000000000000000000000000000000000000000000000001011100 '
1i
b0000000000000000000000000000000000000000000000000000000001011100 l
#236
#237
#238
#239
#240
0i
#241
#242
#243
#244
#245
b0000000000000000000000000000000000000000000000000000000001100000 '
1i
b0000000000000000000000000000000000000000000000000000000001100000 l
#246
#247
#248
#249
#250
0i
#251
#252
#253
#254
#255
b0000000000000000000000000000000000000000000000000000000001100100 '
1i
b0000000000000000000000000000000000000000000000000000000001100100 l
#256
#257
#258
#259
#260
0i
#261
#262
#263
#264
#265
b0000000000000000000000000000000000000000000000000000000001101000 '
1i
b0000000000000000000000000000000000000000000000000000000001101000 l
#266
#267
#268
#269
#270
0i
#271
#272
#273
#274
#275
b0000000000000000000000000000000000000000000000000000000001101100 '
1i
b0000000000000000000000000000000000000000000000000000000001101100 l
#276
#277
#278
#279
#280
0i
#281
#282
#283
#284
#285
b0000000000000000000000000000000000000000000000000000000001110000 '
1i
b0000000000000000000000000000000000000000000000000000000001110000 l
#286
#287
#288
#289
#290
0i
#291
#292
#293
#294
#295
b0000000000000000000000000000000000000000000000000000000001110100 '
1i
b0000000000000000000000000000000000000000000000000000000001110100 l
#296
#297
#298
#299
#300
0i
#301
#302
#303
#304
#305
b0000000000000000000000000000000000000000000000000000000001111000 '
1i
b0000000000000000000000000000000000000000000000000000000001111000 l
#306
#307
#308
#309
#310
0i
#311
#312
#313
#314
#315
b0000000000000000000000000000000000000000000000000000000001111100 '
1i
b0000000000000000000000000000000000000000000000000000000001111100 l
#316
#317
#318
#319
#320
0i
#321
#322
#323
#324
#325
b0000000000000000000000000000000000000000000000000000000010000000 '
1i
b0000000000000000000000000000000000000000000000000000000010000000 l
#326
#327
#328
#329
#330
0i
#331
#332
#333
#334
#335
b0000000000000000000000000000000000000000000000000000000010000100 '
1i
b0000000000000000000000000000000000000000000000000000000010000100 l
#336
#337
#338
#339
#340
0i
#341
#342
#343
#344
#345
b0000000000000000000000000000000000000000000000000000000010001000 '
1i
b0000000000000000000000000000000000000000000000000000000010001000 l
#346
#347
#348
#349
#350
0i
#351
#352
#353
#354
#355
b0000000000000000000000000000000000000000000000000000000010001100 '
1i
b0000000000000000000000000000000000000000000000000000000010001100 l
#356
#357
#358
#359
#360
0i
#361
#362
#363
#364
#365
b0000000000000000000000000000000000000000000000000000000010010000 '
1i
b0000000000000000000000000000000000000000000000000000000010010000 l
#366
#367
#368
#369
#370
0i
#371
#372
#373
#374
#375
b0000000000000000000000000000000000000000000000000000000010010100 '
1i
b0000000000000000000000000000000000000000000000000000000010010100 l
#376
#377
#378
#379
#380
0i
#381
#382
#383
#384
#385
b0000000000000000000000000000000000000000000000000000000010011000 '
1i
b0000000000000000000000000000000000000000000000000000000010011000 l
#386
#387
#388
#389
#390
0i
#391
#392
#393
#394
#395
b0000000000000000000000000000000000000000000000000000000010011100 '
1i
b0000000000000000000000000000000000000000000000000000000010011100 l
#396
#397
#398
#399
#400
0i
#401
#402
#403
#404
#405
b0000000000000000000000000000000000000000000000000000000010100000 '
1i
b0000000000000000000000000000000000000000000000000000000010100000 l
#406
#407
#408
#409
#410
0i
#411
#412
#413
#414
#415
b0000000000000000000000000000000000000000000000000000000010100100 '
1i
b0000000000000000000000000000000000000000000000000000000010100100 l
#416
#417
#418
#419
#420
0i
#421
#422
#423
#424
#425
b0000000000000000000000000000000000000000000000000000000010101000 '
1i
b0000000000000000000000000000000000000000000000000000000010101000 l
#426
#427
#428
#429
#430
0i
#431
#432
#433
#434
#435
b0000000000000000000000000000000000000000000000000000000010101100 '
1i
b0000000000000000000000000000000000000000000000000000000010101100 l
#436
#437
#438
#439
#440
0i
#441
#442
#443
#444
#445
b0000000000000000000000000000000000000000000000000000000010110000 '
1i
b0000000000000000000000000000000000000000000000000000000010110000 l
#446
#447
#448
#449
#450
0i
#451
#452
#453
#454
#455
b0000000000000000000000000000000000000000000000000000000010110100 '
1i
b0000000000000000000000000000000000000000000000000000000010110100 l
#456
#457
#458
#459
#460
0i
#461
#462
#463
#464
#465
b0000000000000000000000000000000000000000000000000000000010111000 '
1i
b0000000000000000000000000000000000000000000000000000000010111000 l
#466
#467
#468
#469
#470
0i
#471
#472
#473
#474
#475
b0000000000000000000000000000000000000000000000000000000010111100 '
1i
b0000000000000000000000000000000000000000000000000000000010111100 l
#476
#477
#478
#479
#480
0i
#481
#482
#483
#484
#485
b0000000000000000000000000000000000000000000000000000000011000000 '
1i
b0000000000000000000000000000000000000000000000000000000011000000 l
#486
#487
#488
#489
#490
0i
#491
#492
#493
#494
#495
b0000000000000000000000000000000000000000000000000000000011000100 '
1i
b0000000000000000000000000000000000000000000000000000000011000100 l
#496
#497
#498
#499
#500
0i
#501
#502
#503
#504
#505
b0000000000000000000000000000000000000000000000000000000011001000 '
1i
b0000000000000000000000000000000000000000000000000000000011001000 l
#506
#507
#508
#509
#510
0i
#511
#512
#513
#514
#515
b0000000000000000000000000000000000000000000000000000000011001100 '
1i
b0000000000000000000000000000000000000000000000000000000011001100 l
#516
#517
#518
#519
#520
0i
#521
#522
#523
#524
#525
b0000000000000000000000000000000000000000000000000000000011010000 '
1i
b0000000000000000000000000000000000000000000000000000000011010000 l
#526
#527
#528
#529
#530
0i
#531
#532
#533
#534
#535
b0000000000000000000000000000000000000000000000000000000011010100 '
1i
b0000000000000000000000000000000000000000000000000000000011010100 l
#536
#537
#538
#539
#540
0i
#541
#542
#543
#544
#545
b0000000000000000000000000000000000000000000000000000000011011000 '
1i
b0000000000000000000000000000000000000000000000000000000011011000 l
#546
#547
#548
#549
#550
0i
#551
#552
#553
#554
#555
b0000000000000000000000000000000000000000000000000000000011011100 '
1i
b0000000000000000000000000000000000000000000000000000000011011100 l
#556
#557
#558
#559
#560
0i
#561
#562
#563
#564
#565
b0000000000000000000000000000000000000000000000000000000011100000 '
1i
b0000000000000000000000000000000000000000000000000000000011100000 l
#566
#567
#568
#569
#570
0i
#571
#572
#573
#574
#575
b0000000000000000000000000000000000000000000000000000000011100100 '
1i
b0000000000000000000000000000000000000000000000000000000011100100 l
#576
#577
#578
#579
#580
0i
#581
#582
#583
#584
#585
b0000000000000000000000000000000000000000000000000000000011101000 '
1i
b0000000000000000000000000000000000000000000000000000000011101000 l
#586
#587
#588
#589
#590
0i
#591
#592
#593
#594
#595
b0000000000000000000000000000000000000000000000000000000011101100 '
1i
b0000000000000000000000000000000000000000000000000000000011101100 l
#596
#597
#598
#599
#600
0i
#601
#602
#603
#604
#605
b0000000000000000000000000000000000000000000000000000000011110000 '
1i
b0000000000000000000000000000000000000000000000000000000011110000 l
#606
#607
#608
#609
#610
0i
#611
#612
#613
#614
#615
b0000000000000000000000000000000000000000000000000000000011110100 '
1i
b0000000000000000000000000000000000000000000000000000000011110100 l
#616
#617
#618
#619
#620
0i
#621
#622
#623
#624
#625
b0000000000000000000000000000000000000000000000000000000011111000 '
1i
b0000000000000000000000000000000000000000000000000000000011111000 l
#626
#627
#628
#629
#630
0i
#631
#632
#633
#634
#635
b0000000000000000000000000000000000000000000000000000000011111100 '
1i
b0000000000000000000000000000000000000000000000000000000011111100 l
#636
#637
#638
#639
#640
0i
#641
#642
#643
#644
#645
b0000000000000000000000000000000000000000000000000000000100000000 '
1i
b0000000000000000000000000000000000000000000000000000000100000000 l
#646
#647
#648
#649
#650
0i
#651
#652
#653
#654
#655
b0000000000000000000000000000000000000000000000000000000100000100 '
1i
b0000000000000000000000000000000000000000000000000000000100000100 l
#656
#657
#658
#659
#660
0i
#661
#662
#663
#664
#665
b0000000000000000000000000000000000000000000000000000000100001000 '
1i
b0000000000000000000000000000000000000000000000000000000100001000 l
#666
#667
#668
#669
#670
0i
#671
#672
#673
#674
#675
b0000000000000000000000000000000000000000000000000000000100001100 '
1i
b0000000000000000000000000000000000000000000000000000000100001100 l
#676
#677
#678
#679
#680
0i
#681
#682
#683
#684
#685
b0000000000000000000000000000000000000000000000000000000100010000 '
1i
b0000000000000000000000000000000000000000000000000000000100010000 l
#686
#687
#688
#689
#690
0i
#691
#692
#693
#694
#695
b0000000000000000000000000000000000000000000000000000000100010100 '
1i
b0000000000000000000000000000000000000000000000000000000100010100 l
#696
#697
#698
#699
#700
0i
#701
#702
#703
#704
#705
b0000000000000000000000000000000000000000000000000000000100011000 '
1i
b0000000000000000000000000000000000000000000000000000000100011000 l
#706
#707
#708
#709
#710
0i
#711
#712
#713
#714
#715
b0000000000000000000000000000000000000000000000000000000100011100 '
1i
b0000000000000000000000000000000000000000000000000000000100011100 l
#716
#717
#718
#719
#720
0i
#721
#722
#723
#724
#725
b0000000000000000000000000000000000000000000000000000000100100000 '
1i
b0000000000000000000000000000000000000000000000000000000100100000 l
#726
#727
#728
#729
#730
0i
#731
#732
#733
#734
#735
b0000000000000000000000000000000000000000000000000000000100100100 '
1i
b0000000000000000000000000000000000000000000000000000000100100100 l
#736
#737
#738
#739
#740
0i
#741
#742
#743
#744
#745
b0000000000000000000000000000000000000000000000000000000100101000 '
1i
b0000000000000000000000000000000000000000000000000000000100101000 l
#746
#747
#748
#749
#750
0i
#751
#752
#753
#754
#755
b0000000000000000000000000000000000000000000000000000000100101100 '
1i
b0000000000000000000000000000000000000000000000000000000100101100 l
#756
#757
#758
#759
#760
0i
#761
#762
#763
#764
#765
b0000000000000000000000000000000000000000000000000000000100110000 '
1i
b0000000000000000000000000000000000000000000000000000000100110000 l
#766
#767
#768
#769
#770
0i
#771
#772
#773
#774
#775
b0000000000000000000000000000000000000000000000000000000100110100 '
1i
b0000000000000000000000000000000000000000000000000000000100110100 l
#776
#777
#778
#779
#780
0i
#781
#782
#783
#784
#785
b0000000000000000000000000000000000000000000000000000000100111000 '
1i
b0000000000000000000000000000000000000000000000000000000100111000 l
#786
#787
#788
#789
#790
0i
#791
#792
#793
#794
#795
b0000000000000000000000000000000000000000000000000000000100111100 '
1i
b0000000000000000000000000000000000000000000000000000000100111100 l
#796
#797
#798
#799
#800
0i
#801
#802
#803
#804
#805
b0000000000000000000000000000000000000000000000000000000101000000 '
1i
b0000000000000000000000000000000000000000000000000000000101000000 l
#806
#807
#808
#809
#810
0i
#811
#812
#813
#814
#815
b0000000000000000000000000000000000000000000000000000000101000100 '
1i
b0000000000000000000000000000000000000000000000000000000101000100 l
#816
#817
#818
#819
#820
0i
#821
#822
#823
#824
#825
b0000000000000000000000000000000000000000000000000000000101001000 '
1i
b0000000000000000000000000000000000000000000000000000000101001000 l
#826
#827
#828
#829
#830
0i
#831
#832
#833
#834
#835
b0000000000000000000000000000000000000000000000000000000101001100 '
1i
b0000000000000000000000000000000000000000000000000000000101001100 l
#836
#837
#838
#839
#840
0i
#841
#842
#843
#844
#845
b0000000000000000000000000000000000000000000000000000000101010000 '
1i
b0000000000000000000000000000000000000000000000000000000101010000 l
#846
#847
#848
#849
#850
0i
#851
#852
#853
#854
#855
b0000000000000000000000000000000000000000000000000000000101010100 '
1i
b0000000000000000000000000000000000000000000000000000000101010100 l
#856
#857
#858
#859
#860
0i
#861
#862
#863
#864
#865
b0000000000000000000000000000000000000000000000000000000101011000 '
1i
b0000000000000000000000000000000000000000000000000000000101011000 l
#866
#867
#868
#869
#870
0i
#871
#872
#873
#874
#875
b0000000000000000000000000000000000000000000000000000000101011100 '
1i
b0000000000000000000000000000000000000000000000000000000101011100 l
#876
#877
#878
#879
#880
0i
#881
#882
#883
#884
#885
b0000000000000000000000000000000000000000000000000000000101100000 '
1i
b0000000000000000000000000000000000000000000000000000000101100000 l
#886
#887
#888
#889
#890
0i
#891
#892
#893
#894
#895
b0000000000000000000000000000000000000000000000000000000101100100 '
1i
b0000000000000000000000000000000000000000000000000000000101100100 l
#896
#897
#898
#899
#900
0i
#901
#902
#903
#904
#905
b0000000000000000000000000000000000000000000000000000000101101000 '
1i
b0000000000000000000000000000000000000000000000000000000101101000 l
#906
#907
#908
#909
#910
0i
#911
#912
#913
#914
#915
b0000000000000000000000000000000000000000000000000000000101101100 '
1i
b0000000000000000000000000000000000000000000000000000000101101100 l
#916
#917
#918
#919
#920
0i
#921
#922
#923
#924
#925
b0000000000000000000000000000000000000000000000000000000101110000 '
1i
b0000000000000000000000000000000000000000000000000000000101110000 l
#926
#927
#928
#929
#930
0i
#931
#932
#933
#934
#935
b0000000000000000000000000000000000000000000000000000000101110100 '
1i
b0000000000000000000000000000000000000000000000000000000101110100 l
#936
#937
#938
#939
#940
0i
#941
#942
#943
#944
#945
b0000000000000000000000000000000000000000000000000000000101111000 '
1i
b0000000000000000000000000000000000000000000000000000000101111000 l
#946
#947
#948
#949
#950
0i
#951
#952
#953
#954
#955
b0000000000000000000000000000000000000000000000000000000101111100 '
1i
b0000000000000000000000000000000000000000000000000000000101111100 l
#956
#957
#958
#959
#960
0i
#961
#962
#963
#964
#965
b0000000000000000000000000000000000000000000000000000000110000000 '
1i
b0000000000000000000000000000000000000000000000000000000110000000 l
#966
#967
#968
#969
#970
0i
#971
#972
#973
#974
#975
b0000000000000000000000000000000000000000000000000000000110000100 '
1i
b0000000000000000000000000000000000000000000000000000000110000100 l
#976
#977
#978
#979
#980
0i
#981
#982
#983
#984
#985
b0000000000000000000000000000000000000000000000000000000110001000 '
1i
b0000000000000000000000000000000000000000000000000000000110001000 l
#986
#987
#988
#989
#990
0i
#991
#992
#993
#994
#995
b0000000000000000000000000000000000000000000000000000000110001100 '
1i
b0000000000000000000000000000000000000000000000000000000110001100 l
